EESchema Schematic File Version 4
LIBS:bluetooth-cache
LIBS:Antenna-cache
EELAYER 29 0
EELAYER END
$Descr A4 11693 8268
encoding utf-8
Sheet 1 1
Title ""
Date ""
Rev ""
Comp ""
Comment1 ""
Comment2 ""
Comment3 ""
Comment4 ""
$EndDescr
$Comp
L ICs:O U4
U 1 1 5D21C8AE
P 3950 2350
F 0 "U4" H 4150 2600 50  0001 C CNN
F 1 "O" H 3950 2650 50  0001 C CNN
F 2 "ICs:Ο" H 4000 2450 50  0001 C CNN
F 3 "" H 3950 2350 50  0001 C CNN
	1    3950 2350
	1    0    0    -1  
$EndComp
$Comp
L ICs:O U2
U 1 1 5D21CCBE
P 3950 2150
F 0 "U2" H 4150 2400 50  0001 C CNN
F 1 "O" H 3950 2450 50  0001 C CNN
F 2 "ICs:Ο" H 4000 2250 50  0001 C CNN
F 3 "" H 3950 2150 50  0001 C CNN
	1    3950 2150
	1    0    0    -1  
$EndComp
$Comp
L ICs:O U3
U 1 1 5D21D0B6
P 3350 2300
F 0 "U3" H 3550 2550 50  0001 C CNN
F 1 "O" H 3350 2600 50  0001 C CNN
F 2 "ICs:Ο" H 3400 2400 50  0001 C CNN
F 3 "" H 3350 2300 50  0001 C CNN
	1    3350 2300
	1    0    0    -1  
$EndComp
$Comp
L ICs:O U1
U 1 1 5D21E121
P 4000 1850
F 0 "U1" H 4200 2100 50  0001 C CNN
F 1 "O" H 4000 2150 50  0001 C CNN
F 2 "ICs:Ο" H 4050 1950 50  0001 C CNN
F 3 "" H 4000 1850 50  0001 C CNN
	1    4000 1850
	1    0    0    -1  
$EndComp
$Comp
L ICs:O U5
U 1 1 5D21E528
P 4100 1350
F 0 "U5" H 4300 1600 50  0001 C CNN
F 1 "O" H 4100 1650 50  0001 C CNN
F 2 "ICs:Ο" H 4150 1450 50  0001 C CNN
F 3 "" H 4100 1350 50  0001 C CNN
	1    4100 1350
	1    0    0    -1  
$EndComp
$Comp
L ICs:O U6
U 1 1 5D21E754
P 4300 1950
F 0 "U6" H 4500 2200 50  0001 C CNN
F 1 "O" H 4300 2250 50  0001 C CNN
F 2 "ICs:Ο" H 4350 2050 50  0001 C CNN
F 3 "" H 4300 1950 50  0001 C CNN
	1    4300 1950
	1    0    0    -1  
$EndComp
$Comp
L ICs:O U7
U 1 1 5D21E8D6
P 3600 2200
F 0 "U7" H 3800 2450 50  0001 C CNN
F 1 "O" H 3600 2500 50  0001 C CNN
F 2 "ICs:Ο" H 3650 2300 50  0001 C CNN
F 3 "" H 3600 2200 50  0001 C CNN
	1    3600 2200
	1    0    0    -1  
$EndComp
$Comp
L ICs:O U24
U 1 1 5D21F55B
P 4500 1300
F 0 "U24" H 4700 1550 50  0001 C CNN
F 1 "O" H 4500 1600 50  0001 C CNN
F 2 "ICs:Ο" H 4550 1400 50  0001 C CNN
F 3 "" H 4500 1300 50  0001 C CNN
	1    4500 1300
	1    0    0    -1  
$EndComp
$Comp
L ICs:O U28
U 1 1 5D21F8FE
P 4700 1800
F 0 "U28" H 4900 2050 50  0001 C CNN
F 1 "O" H 4700 2100 50  0001 C CNN
F 2 "ICs:Ο" H 4750 1900 50  0001 C CNN
F 3 "" H 4700 1800 50  0001 C CNN
	1    4700 1800
	1    0    0    -1  
$EndComp
$Comp
L ICs:O U27
U 1 1 5D220695
P 4550 2050
F 0 "U27" H 4750 2300 50  0001 C CNN
F 1 "O" H 4550 2350 50  0001 C CNN
F 2 "ICs:Ο" H 4600 2150 50  0001 C CNN
F 3 "" H 4550 2050 50  0001 C CNN
	1    4550 2050
	1    0    0    -1  
$EndComp
$Comp
L ICs:O U16
U 1 1 5D220CA0
P 4550 2300
F 0 "U16" H 4750 2550 50  0001 C CNN
F 1 "O" H 4550 2600 50  0001 C CNN
F 2 "ICs:Ο" H 4600 2400 50  0001 C CNN
F 3 "" H 4550 2300 50  0001 C CNN
	1    4550 2300
	1    0    0    -1  
$EndComp
$Comp
L ICs:O U13
U 1 1 5D220DF5
P 3750 2450
F 0 "U13" H 3950 2700 50  0001 C CNN
F 1 "O" H 3750 2750 50  0001 C CNN
F 2 "ICs:Ο" H 3800 2550 50  0001 C CNN
F 3 "" H 3750 2450 50  0001 C CNN
	1    3750 2450
	1    0    0    -1  
$EndComp
$Comp
L ICs:O U10
U 1 1 5D220F86
P 3100 2200
F 0 "U10" H 3300 2450 50  0001 C CNN
F 1 "O" H 3100 2500 50  0001 C CNN
F 2 "ICs:Ο" H 3150 2300 50  0001 C CNN
F 3 "" H 3100 2200 50  0001 C CNN
	1    3100 2200
	1    0    0    -1  
$EndComp
$Comp
L ICs:O U15
U 1 1 5D2210EA
P 3400 1950
F 0 "U15" H 3600 2200 50  0001 C CNN
F 1 "O" H 3400 2250 50  0001 C CNN
F 2 "ICs:Ο" H 3450 2050 50  0001 C CNN
F 3 "" H 3400 1950 50  0001 C CNN
	1    3400 1950
	1    0    0    -1  
$EndComp
$Comp
L ICs:O U14
U 1 1 5D22130D
P 3800 1850
F 0 "U14" H 4000 2100 50  0001 C CNN
F 1 "O" H 3800 2150 50  0001 C CNN
F 2 "ICs:Ο" H 3850 1950 50  0001 C CNN
F 3 "" H 3800 1850 50  0001 C CNN
	1    3800 1850
	1    0    0    -1  
$EndComp
$Comp
L ICs:O U12
U 1 1 5D221355
P 3550 1300
F 0 "U12" H 3750 1550 50  0001 C CNN
F 1 "O" H 3550 1600 50  0001 C CNN
F 2 "ICs:Ο" H 3600 1400 50  0001 C CNN
F 3 "" H 3550 1300 50  0001 C CNN
	1    3550 1300
	1    0    0    -1  
$EndComp
$Comp
L ICs:O U11
U 1 1 5D221D7F
P 4350 2450
F 0 "U11" H 4550 2700 50  0001 C CNN
F 1 "O" H 4350 2750 50  0001 C CNN
F 2 "ICs:Ο" H 4400 2550 50  0001 C CNN
F 3 "" H 4350 2450 50  0001 C CNN
	1    4350 2450
	1    0    0    -1  
$EndComp
$Comp
L ICs:O U9
U 1 1 5D2220FA
P 4100 2450
F 0 "U9" H 4300 2700 50  0001 C CNN
F 1 "O" H 4100 2750 50  0001 C CNN
F 2 "ICs:Ο" H 4150 2550 50  0001 C CNN
F 3 "" H 4100 2450 50  0001 C CNN
	1    4100 2450
	1    0    0    -1  
$EndComp
$Comp
L ICs:O U17
U 1 1 5D222349
P 3850 1300
F 0 "U17" H 4050 1550 50  0001 C CNN
F 1 "O" H 3850 1600 50  0001 C CNN
F 2 "ICs:Ο" H 3900 1400 50  0001 C CNN
F 3 "" H 3850 1300 50  0001 C CNN
	1    3850 1300
	1    0    0    -1  
$EndComp
$Comp
L ICs:O U18
U 1 1 5D2226B5
P 4050 1250
F 0 "U18" H 4250 1500 50  0001 C CNN
F 1 "O" H 4050 1550 50  0001 C CNN
F 2 "ICs:Ο" H 4100 1350 50  0001 C CNN
F 3 "" H 4050 1250 50  0001 C CNN
	1    4050 1250
	1    0    0    -1  
$EndComp
$Comp
L ICs:O U102
U 1 1 5D222904
P 4300 1000
F 0 "U102" H 4500 1250 50  0001 C CNN
F 1 "O" H 4300 1300 50  0001 C CNN
F 2 "ICs:Ο" H 4350 1100 50  0001 C CNN
F 3 "" H 4300 1000 50  0001 C CNN
	1    4300 1000
	1    0    0    -1  
$EndComp
$Comp
L ICs:O U23
U 1 1 5D222B76
P 4500 1900
F 0 "U23" H 4700 2150 50  0001 C CNN
F 1 "O" H 4500 2200 50  0001 C CNN
F 2 "ICs:Ο" H 4550 2000 50  0001 C CNN
F 3 "" H 4500 1900 50  0001 C CNN
	1    4500 1900
	1    0    0    -1  
$EndComp
$Comp
L ICs:O U21
U 1 1 5D222E01
P 4250 2150
F 0 "U21" H 4450 2400 50  0001 C CNN
F 1 "O" H 4250 2450 50  0001 C CNN
F 2 "ICs:Ο" H 4300 2250 50  0001 C CNN
F 3 "" H 4250 2150 50  0001 C CNN
	1    4250 2150
	1    0    0    -1  
$EndComp
$Comp
L ICs:O U32
U 1 1 5D223560
P 4750 2200
F 0 "U32" H 4950 2450 50  0001 C CNN
F 1 "O" H 4750 2500 50  0001 C CNN
F 2 "ICs:Ο" H 4800 2300 50  0001 C CNN
F 3 "" H 4750 2200 50  0001 C CNN
	1    4750 2200
	1    0    0    -1  
$EndComp
$Comp
L ICs:O U30
U 1 1 5D223A7B
P 4750 1350
F 0 "U30" H 4950 1600 50  0001 C CNN
F 1 "O" H 4750 1650 50  0001 C CNN
F 2 "ICs:Ο" H 4800 1450 50  0001 C CNN
F 3 "" H 4750 1350 50  0001 C CNN
	1    4750 1350
	1    0    0    -1  
$EndComp
$Comp
L ICs:O U29
U 1 1 5D223DBA
P 4650 1150
F 0 "U29" H 4850 1400 50  0001 C CNN
F 1 "O" H 4650 1450 50  0001 C CNN
F 2 "ICs:Ο" H 4700 1250 50  0001 C CNN
F 3 "" H 4650 1150 50  0001 C CNN
	1    4650 1150
	1    0    0    -1  
$EndComp
$Comp
L power:GND #PWR0101
U 1 1 5D30826F
P 5350 2700
F 0 "#PWR0101" H 5350 2450 50  0001 C CNN
F 1 "GND" H 5355 2527 50  0000 C CNN
F 2 "" H 5350 2700 50  0001 C CNN
F 3 "" H 5350 2700 50  0001 C CNN
	1    5350 2700
	1    0    0    -1  
$EndComp
$Comp
L ICs:O U8
U 1 1 5D308502
P 6300 2500
F 0 "U8" H 6500 2750 50  0001 C CNN
F 1 "O" H 6300 2800 50  0001 C CNN
F 2 "ICs:Ο" H 6350 2600 50  0001 C CNN
F 3 "" H 6300 2500 50  0001 C CNN
	1    6300 2500
	1    0    0    -1  
$EndComp
Wire Wire Line
	6200 2450 6200 2500
Wire Wire Line
	5350 2450 6200 2450
$Comp
L Capacitors_smd:1206_cap_smd Cap_3
U 1 1 5D309105
P 6850 3100
F 0 "Cap_3" H 6825 3368 50  0000 C CNN
F 1 "1206_cap_smd" H 6825 3277 50  0000 C CNN
F 2 "Capacitors_smd:1206_cap_smd" H 6750 3350 50  0001 C CNN
F 3 "" H 6850 3100 50  0001 C CNN
	1    6850 3100
	1    0    0    -1  
$EndComp
$Comp
L Capacitors_smd:1206_cap_smd Cap_1
U 1 1 5D309A4C
P 6100 2850
F 0 "Cap_1" H 6075 3118 50  0000 C CNN
F 1 "1206_cap_smd" H 6075 3027 50  0000 C CNN
F 2 "Capacitors_smd:1206_cap_smd" H 6000 3100 50  0001 C CNN
F 3 "" H 6100 2850 50  0001 C CNN
	1    6100 2850
	1    0    0    -1  
$EndComp
Wire Wire Line
	6950 3550 6950 3300
Wire Wire Line
	5350 2450 5350 2700
Connection ~ 5350 2700
Wire Wire Line
	5350 2700 5350 3550
Wire Wire Line
	6700 3100 6700 3300
Wire Wire Line
	5350 3550 6700 3550
Connection ~ 6700 3550
Wire Wire Line
	6700 3550 6950 3550
$Comp
L Capacitors_smd:1206_cap_smd Cap_4
U 1 1 5D31954A
P 6850 3300
F 0 "Cap_4" H 6825 3568 50  0000 C CNN
F 1 "1206_cap_smd" H 6825 3477 50  0000 C CNN
F 2 "Capacitors_smd:1206_cap_smd" H 6750 3550 50  0001 C CNN
F 3 "" H 6850 3300 50  0001 C CNN
	1    6850 3300
	1    0    0    -1  
$EndComp
Connection ~ 6700 3300
Wire Wire Line
	6700 3300 6700 3550
Connection ~ 6950 3300
Wire Wire Line
	6950 3300 6950 3100
$Comp
L Capacitors_smd:1206_cap_smd Cap_2
U 1 1 5D31B50D
P 6100 3250
F 0 "Cap_2" H 6075 3518 50  0000 C CNN
F 1 "1206_cap_smd" H 6075 3427 50  0000 C CNN
F 2 "Capacitors_smd:1206_cap_smd" H 6000 3500 50  0001 C CNN
F 3 "" H 6100 3250 50  0001 C CNN
	1    6100 3250
	1    0    0    -1  
$EndComp
$EndSCHEMATC
