%FSLAX45Y45*%
G04 Gerber Fmt 4.5, Leading zero omitted, Abs format (unit mm)*
G04 Created by KiCad (PCBNEW 5.1.4-e60b266~84~ubuntu18.04.1) date 2019-10-13 14:04:26*
%MOMM*%
%LPD*%
G04 APERTURE LIST*
%ADD10C,0.100000*%
%ADD11C,0.200000*%
%ADD12C,0.300000*%
G04 APERTURE END LIST*
D10*
X12204000Y-12634000D02*
X12204000Y-8934000D01*
X12304000Y-12634000D02*
X12204000Y-12634000D01*
X16904000Y-12634000D02*
X12304000Y-12634000D01*
X16904000Y-8934000D02*
X16904000Y-12634000D01*
X16804000Y-8934000D02*
X16904000Y-8934000D01*
X12204000Y-8934000D02*
X16804000Y-8934000D01*
D11*
D12*
X12485428Y-13104714D02*
X12485428Y-12804714D01*
X12556857Y-12804714D01*
X12599714Y-12819000D01*
X12628286Y-12847571D01*
X12642571Y-12876143D01*
X12656857Y-12933286D01*
X12656857Y-12976143D01*
X12642571Y-13033286D01*
X12628286Y-13061857D01*
X12599714Y-13090429D01*
X12556857Y-13104714D01*
X12485428Y-13104714D01*
X12785428Y-13104714D02*
X12785428Y-12904714D01*
X12785428Y-12961857D02*
X12799714Y-12933286D01*
X12814000Y-12919000D01*
X12842571Y-12904714D01*
X12871143Y-12904714D01*
X12971143Y-13104714D02*
X12971143Y-12904714D01*
X12971143Y-12804714D02*
X12956857Y-12819000D01*
X12971143Y-12833286D01*
X12985428Y-12819000D01*
X12971143Y-12804714D01*
X12971143Y-12833286D01*
X13156857Y-13104714D02*
X13128286Y-13090429D01*
X13114000Y-13061857D01*
X13114000Y-12804714D01*
X13314000Y-13104714D02*
X13285428Y-13090429D01*
X13271143Y-13061857D01*
X13271143Y-12804714D01*
X13656857Y-13104714D02*
X13656857Y-12804714D01*
X13756857Y-13019000D01*
X13856857Y-12804714D01*
X13856857Y-13104714D01*
X14128286Y-13104714D02*
X14128286Y-12947571D01*
X14114000Y-12919000D01*
X14085428Y-12904714D01*
X14028286Y-12904714D01*
X13999714Y-12919000D01*
X14128286Y-13090429D02*
X14099714Y-13104714D01*
X14028286Y-13104714D01*
X13999714Y-13090429D01*
X13985428Y-13061857D01*
X13985428Y-13033286D01*
X13999714Y-13004714D01*
X14028286Y-12990429D01*
X14099714Y-12990429D01*
X14128286Y-12976143D01*
X14271143Y-12904714D02*
X14271143Y-13204714D01*
X14271143Y-12919000D02*
X14299714Y-12904714D01*
X14356857Y-12904714D01*
X14385428Y-12919000D01*
X14399714Y-12933286D01*
X14414000Y-12961857D01*
X14414000Y-13047571D01*
X14399714Y-13076143D01*
X14385428Y-13090429D01*
X14356857Y-13104714D01*
X14299714Y-13104714D01*
X14271143Y-13090429D01*
X14542571Y-13076143D02*
X14556857Y-13090429D01*
X14542571Y-13104714D01*
X14528286Y-13090429D01*
X14542571Y-13076143D01*
X14542571Y-13104714D01*
X14542571Y-12919000D02*
X14556857Y-12933286D01*
X14542571Y-12947571D01*
X14528286Y-12933286D01*
X14542571Y-12919000D01*
X14542571Y-12947571D01*
M02*
